{
    "key": "group_54e4abc2cf421",
    "title": "Gem Fields - Sidebar",
    "fields": [
        {
            "key": "field_54e580cf7a269",
            "label": "Ownership",
            "name": "gemscape_ownership",
            "prefix": "",
            "type": "radio",
            "instructions": "",
            "required": 1,
            "conditional_logic": 0,
            "wrapper": {
                "width": "",
                "class": "",
                "id": ""
            },
            "choices": {
                "public": "Public",
                "private": "Private"
            },
            "other_choice": 0,
            "save_other_choice": 0,
            "default_value": "private",
            "layout": "vertical"
        },
        {
            "key": "field_54e581767a26a",
            "label": "Sponsored By",
            "name": "gemscape_sponsored_by",
            "prefix": "",
            "type": "post_object",
            "instructions": "",
            "required": 0,
            "conditional_logic": [
                [
                    {
                        "field": "field_54e580cf7a269",
                        "operator": "==",
                        "value": "public"
                    }
                ]
            ],
            "wrapper": {
                "width": "",
                "class": "",
                "id": ""
            },
            "post_type": [
                "gem"
            ],
            "taxonomy": "",
            "allow_null": 0,
            "multiple": 0,
            "return_format": "object",
            "ui": 1
        },
        {
            "key": "field_54e9617ba6f15",
            "label": "Client",
            "name": "gemscape_client",
            "prefix": "",
            "type": "post_object",
            "instructions": "",
            "required": 0,
            "conditional_logic": [
                [
                    {
                        "field": "field_54e580cf7a269",
                        "operator": "==",
                        "value": "private"
                    }
                ]
            ],
            "wrapper": {
                "width": "",
                "class": "",
                "id": ""
            },
            "post_type": [
                "sa_client"
            ],
            "taxonomy": "",
            "allow_null": 0,
            "multiple": 0,
            "return_format": "object",
            "ui": 1
        },
        {
            "key": "field_54e961f5a6f16",
            "label": "Yearly Rate",
            "name": "gemscape_client_yearly_rate",
            "prefix": "",
            "type": "number",
            "instructions": "",
            "required": 0,
            "conditional_logic": [
                [
                    {
                        "field": "field_54e580cf7a269",
                        "operator": "==",
                        "value": "private"
                    }
                ]
            ],
            "wrapper": {
                "width": "",
                "class": "",
                "id": ""
            },
            "default_value": 49,
            "placeholder": "",
            "prepend": "",
            "append": "",
            "min": "",
            "max": "",
            "step": 1,
            "readonly": 0,
            "disabled": 0
        }
    ],
    "location": [
        [
            {
                "param": "post_type",
                "operator": "==",
                "value": "gem"
            }
        ]
    ],
    "menu_order": 0,
    "position": "side",
    "style": "default",
    "label_placement": "top",
    "instruction_placement": "label",
    "hide_on_screen": "",
    "modified": 1430971208
}