{
    "key": "group_54e4b57482b6c",
    "title": "Gem Fields - Main",
    "fields": [
        {
            "key": "field_54e4b58526819",
            "label": "Subtitle",
            "name": "gemscape_subtitle",
            "prefix": "",
            "type": "limiter",
            "instructions": "",
            "required": 0,
            "conditional_logic": 0,
            "wrapper": {
                "width": 50,
                "class": "",
                "id": ""
            },
            "character_number": 50,
            "display_characters": 0
        },
        {
            "key": "field_54e82ff4b8d58",
            "label": "Short Description",
            "name": "gemscape_short_description",
            "prefix": "",
            "type": "limiter",
            "instructions": "",
            "required": 0,
            "conditional_logic": 0,
            "wrapper": {
                "width": 50,
                "class": "",
                "id": ""
            },
            "character_number": 140,
            "display_characters": 0
        },
        {
            "key": "field_54e95e9677d21",
            "label": "Long Description",
            "name": "gemscape_long_description",
            "prefix": "",
            "type": "wysiwyg",
            "instructions": "",
            "required": 0,
            "conditional_logic": 0,
            "wrapper": {
                "width": 100,
                "class": "",
                "id": ""
            },
            "default_value": "",
            "tabs": "all",
            "toolbar": "full",
            "media_upload": 1
        },
        {
            "key": "field_54e969a14480d",
            "label": "Location",
            "name": "gemscape_location",
            "prefix": "",
            "type": "radio",
            "instructions": "",
            "required": 0,
            "conditional_logic": 0,
            "wrapper": {
                "width": 100,
                "class": "",
                "id": ""
            },
            "choices": {
                "point": "Specific Location",
                "area": "Service Area"
            },
            "other_choice": 0,
            "save_other_choice": 0,
            "default_value": "point",
            "layout": "horizontal"
        },
        {
            "key": "field_54e83a977a28d",
            "label": "Coordinates",
            "name": "gemscape_coordinates",
            "prefix": "",
            "type": "google_map",
            "instructions": "",
            "required": 0,
            "conditional_logic": 0,
            "wrapper": {
                "width": 50,
                "class": "",
                "id": ""
            },
            "center_lat": "51.752640",
            "center_lng": "-9.747873",
            "zoom": 11,
            "height": ""
        },
        {
            "key": "field_54fd8d4b5dbaf",
            "label": "Address",
            "name": "gemscape_address_container",
            "prefix": "",
            "type": "flexible_content",
            "instructions": "",
            "required": 0,
            "conditional_logic": 0,
            "wrapper": {
                "width": 50,
                "class": "",
                "id": ""
            },
            "button_label": "Add Row",
            "min": 1,
            "max": 1,
            "layouts": [
                {
                    "key": "54fd8d59b8d25",
                    "name": "gemscape_address",
                    "label": "Address",
                    "display": "block",
                    "sub_fields": [
                        {
                            "key": "field_54fd8d8c5dbb0",
                            "label": "Address 1",
                            "name": "gemscape_address_1",
                            "prefix": "",
                            "type": "text",
                            "instructions": "",
                            "required": 0,
                            "conditional_logic": 0,
                            "wrapper": {
                                "width": "",
                                "class": "",
                                "id": ""
                            },
                            "default_value": "",
                            "placeholder": "",
                            "prepend": "",
                            "append": "",
                            "maxlength": "",
                            "readonly": 0,
                            "disabled": 0
                        },
                        {
                            "key": "field_54fd8da45dbb1",
                            "label": "Address 2",
                            "name": "gemscape_address_2",
                            "prefix": "",
                            "type": "text",
                            "instructions": "",
                            "required": 0,
                            "conditional_logic": 0,
                            "wrapper": {
                                "width": "",
                                "class": "",
                                "id": ""
                            },
                            "default_value": "",
                            "placeholder": "",
                            "prepend": "",
                            "append": "",
                            "maxlength": "",
                            "readonly": 0,
                            "disabled": 0
                        },
                        {
                            "key": "field_54fd8dae5dbb2",
                            "label": "City",
                            "name": "gemscape_city",
                            "prefix": "",
                            "type": "text",
                            "instructions": "",
                            "required": 0,
                            "conditional_logic": 0,
                            "wrapper": {
                                "width": "",
                                "class": "",
                                "id": ""
                            },
                            "default_value": "",
                            "placeholder": "",
                            "prepend": "",
                            "append": "",
                            "maxlength": "",
                            "readonly": 0,
                            "disabled": 0
                        },
                        {
                            "key": "field_54fd8dbd5dbb3",
                            "label": "County",
                            "name": "gemscape_county",
                            "prefix": "",
                            "type": "text",
                            "instructions": "",
                            "required": 0,
                            "conditional_logic": 0,
                            "wrapper": {
                                "width": "",
                                "class": "",
                                "id": ""
                            },
                            "default_value": "",
                            "placeholder": "",
                            "prepend": "",
                            "append": "",
                            "maxlength": "",
                            "readonly": 0,
                            "disabled": 0
                        },
                        {
                            "key": "field_54fd8dc65dbb4",
                            "label": "Country",
                            "name": "gemscape_country",
                            "prefix": "",
                            "type": "text",
                            "instructions": "",
                            "required": 0,
                            "conditional_logic": 0,
                            "wrapper": {
                                "width": "",
                                "class": "",
                                "id": ""
                            },
                            "default_value": "Ireland",
                            "placeholder": "",
                            "prepend": "",
                            "append": "",
                            "maxlength": "",
                            "readonly": 0,
                            "disabled": 0
                        }
                    ],
                    "min": "",
                    "max": ""
                }
            ]
        },
        {
            "key": "field_54eaacaea1d25",
            "label": "Service Area Text",
            "name": "gemscape_service_area",
            "prefix": "",
            "type": "text",
            "instructions": "",
            "required": 0,
            "conditional_logic": [
                [
                    {
                        "field": "field_54e969a14480d",
                        "operator": "==",
                        "value": "area"
                    }
                ]
            ],
            "wrapper": {
                "width": 50,
                "class": "",
                "id": ""
            },
            "default_value": "",
            "placeholder": "",
            "prepend": "",
            "append": "",
            "maxlength": "",
            "readonly": 0,
            "disabled": 0
        },
        {
            "key": "field_54e95d27407e3",
            "label": "Public Email",
            "name": "gemscape_email",
            "prefix": "",
            "type": "email",
            "instructions": "Don't use if you don't have a public email.",
            "required": 0,
            "conditional_logic": 0,
            "wrapper": {
                "width": 50,
                "class": "",
                "id": ""
            },
            "default_value": "",
            "placeholder": "",
            "prepend": "",
            "append": ""
        },
        {
            "key": "field_54e95ba4407e0",
            "label": "Country Code",
            "name": "gemscape_phone_cc",
            "prefix": "",
            "type": "number",
            "instructions": "",
            "required": 0,
            "conditional_logic": 0,
            "wrapper": {
                "width": 10,
                "class": "",
                "id": ""
            },
            "default_value": 353,
            "placeholder": "",
            "prepend": "+",
            "append": "-",
            "min": 1,
            "max": 999,
            "step": 1,
            "readonly": 0,
            "disabled": 0
        },
        {
            "key": "field_54e95c83407e1",
            "label": "Prefix",
            "name": "gemscape_phone_prefix",
            "prefix": "",
            "type": "number",
            "instructions": "",
            "required": 0,
            "conditional_logic": 0,
            "wrapper": {
                "width": 10,
                "class": "",
                "id": ""
            },
            "default_value": 64,
            "placeholder": "",
            "prepend": "(0",
            "append": ")-",
            "min": "",
            "max": "",
            "step": 1,
            "readonly": 0,
            "disabled": 0
        },
        {
            "key": "field_54e95ce2407e2",
            "label": "Phone Number",
            "name": "gemscape_phone",
            "prefix": "",
            "type": "number",
            "instructions": "",
            "required": 0,
            "conditional_logic": 0,
            "wrapper": {
                "width": 30,
                "class": "",
                "id": ""
            },
            "default_value": "",
            "placeholder": 66440000,
            "prepend": "",
            "append": "",
            "min": "",
            "max": "",
            "step": 1,
            "readonly": 0,
            "disabled": 0
        },
        {
            "key": "field_54eab98234551",
            "label": "Url",
            "name": "gemscape_url",
            "prefix": "",
            "type": "url",
            "instructions": "",
            "required": 0,
            "conditional_logic": 0,
            "wrapper": {
                "width": 100,
                "class": "",
                "id": ""
            },
            "default_value": "",
            "placeholder": ""
        },
        {
            "key": "field_54e95d88407e4",
            "label": "Image Gallery",
            "name": "gemscape_gallery",
            "prefix": "",
            "type": "gallery",
            "instructions": "",
            "required": 0,
            "conditional_logic": 0,
            "wrapper": {
                "width": "",
                "class": "",
                "id": ""
            },
            "min": 0,
            "max": 10,
            "preview_size": "thumbnail",
            "library": "all",
            "min_width": 0,
            "min_height": 0,
            "min_size": 0,
            "max_width": 0,
            "max_height": 0,
            "max_size": 0,
            "mime_types": ""
        }
    ],
    "location": [
        [
            {
                "param": "post_type",
                "operator": "==",
                "value": "gem"
            }
        ]
    ],
    "menu_order": 0,
    "position": "acf_after_title",
    "style": "seamless",
    "label_placement": "top",
    "instruction_placement": "label",
    "hide_on_screen": [
        "the_content"
    ],
    "modified": 1430971201
}